{
    "media": [
        {
            "id": "37a30514-f956-4da1-4063-9e5276e4b79f",
            "title": "Session title that's a bit longer than you would imagine it could be so that it does not wrap in an ugly way",
            "pubDate": "Mon, 21 Apr 2014 04:55:06 GMT",
            "thumbURL": "http://www.capwellnesscenter.com/wp-content/uploads/2015/09/yoga.jpg",
            "imgURL": "http://www.capwellnesscenter.com/wp-content/uploads/2015/09/yoga.jpg",
            "videoURL": "http://www.sample-videos.com/video/mp4/720/big_buck_bunny_720p_20mb.mp4",
            "subtitlesURL" : "http://www.html5rocks.com/en/tutorials/track/basics/treeOfLife/tracks/developerStories-subtitles-en.vtt",
            "categories": [
                "Travel",
                "Trending Now"
            ],
            "moods": [],
            "levels": [],
            "energyLevels": [],
            "description": "Description. Description. Description. Description. Description. Description. Description. Description. Description. Description. Description. Description. Description."
        }
    ]
}
